lab5/Design A/simulation/qsim/lab5a.msim.vcd
$comment
	File created using the following command:
		vcd file lab5a.msim.vcd -direction
$end
$date
	Tue Oct 04 18:53:14 2016
$end
$version
	ModelSim Version 10.4d
$end
$timescale
	1ps
$end

$scope module lab5a_vlg_vec_tst $end
$var reg 1 ! Cin $end
$var reg 4 " X [3:0] $end
$var reg 4 # Y [3:0] $end
$var wire 1 $ Cout $end
$var wire 1 % Over $end
$var wire 1 & S [3] $end
$var wire 1 ' S [2] $end
$var wire 1 ( S [1] $end
$var wire 1 ) S [0] $end

$scope module i1 $end
$var wire 1 * gnd $end
$var wire 1 + vcc $end
$var wire 1 , unknown $end
$var tri1 1 - devclrn $end
$var tri1 1 . devpor $end
$var tri1 1 / devoe $end
$var wire 1 0 ~QUARTUS_CREATED_GND~I_combout $end
$var wire 1 1 Cin~input_o $end
$var wire 1 2 Y[0]~input_o $end
$var wire 1 3 X[0]~input_o $end
$var wire 1 4 _~1_sumout $end
$var wire 1 5 X[1]~input_o $end
$var wire 1 6 Y[1]~input_o $end
$var wire 1 7 _~2 $end
$var wire 1 8 _~3 $end
$var wire 1 9 _~5_sumout $end
$var wire 1 : Y[2]~input_o $end
$var wire 1 ; X[2]~input_o $end
$var wire 1 < _~6 $end
$var wire 1 = _~7 $end
$var wire 1 > _~9_sumout $end
$var wire 1 ? Y[3]~input_o $end
$var wire 1 @ X[3]~input_o $end
$var wire 1 A _~10 $end
$var wire 1 B _~11 $end
$var wire 1 C _~13_sumout $end
$var wire 1 D _~14 $end
$var wire 1 E _~15 $end
$var wire 1 F _~17_sumout $end
$var wire 1 G Over~0_combout $end
$upscope $end
$upscope $end
$enddefinitions $end
#0
$dumpvars
1!
b100 "
b11 #
0$
1%
0)
0(
0'
1&
0*
1+
x,
1-
1.
1/
00
11
12
03
04
05
16
07
18
09
0:
1;
1<
0=
0>
0?
0@
1A
0B
1C
0D
0E
0F
1G
$end
#20000
0!
b0 "
b10 "
b1011 #
b1111 #
b1101 #
b1100 #
01
02
06
1:
1?
15
0;
1D
08
0G
0C
0&
0%
0<
1F
19
1G
1%
1(
1$
0A
1>
0G
0%
1'
0D
1C
1&
0F
1G
1%
0$
0G
0%
#40000
b1010 "
b1011 "
1!
b100 #
b0 #
b10 #
b11 #
11
12
16
0:
0?
13
1@
18
1=
14
0>
09
0(
0'
1)
19
1>
1'
1(
#60000
b1010 "
0!
b1011 #
b1111 #
b1110 #
01
02
1:
1?
03
08
1E
1A
04
1G
0C
0>
0'
0&
1%
0)
09
1F
1C
0G
0%
1&
1$
0(
#80000
b1110 "
b110 "
b111 "
1!
b110 #
b10 #
b11 #
11
12
0:
0?
13
1;
0@
0E
18
14
1)
0F
19
1(
0$
1G
1%
#100000
b1 #
b110 "
0!
b1001 #
b1101 #
03
06
1:
1?
01
08
1D
0A
1B
1<
0=
0G
0C
1>
09
0(
1'
0&
0%
0<
19
1F
1G
1%
1$
1(
0>
0G
0%
0'
#120000
b100 "
b0 "
b1000 "
b1111 #
b1001 "
1!
b111 #
b11 #
16
0:
0?
13
05
0;
1@
11
18
0B
1<
0D
09
1C
1&
0(
1>
0F
1G
1%
0$
1'
0G
0%
#140000
b10 #
b1011 "
b1010 "
0!
b1010 #
b1110 #
03
15
02
1:
1?
01
08
1E
1A
0<
1=
04
1G
0C
0>
19
1(
0'
0&
1%
0)
09
1F
1C
0G
0%
1&
1$
0(
