lab10/simulation/qsim/lab10a.msim.vcd
$comment
	File created using the following command:
		vcd file lab10a.msim.vcd -direction
$end
$date
	Tue Nov 15 18:05:59 2016
$end
$version
	ModelSim Version 10.3d
$end
$timescale
	1ps
$end

$scope module lab10a_vlg_vec_tst $end
$var reg 1 ! clk $end
$var reg 1 " clr $end
$var reg 1 # updown $end
$var wire 1 $ count [2] $end
$var wire 1 % count [1] $end
$var wire 1 & count [0] $end
$var wire 1 ' sampler $end

$scope module i1 $end
$var wire 1 ( gnd $end
$var wire 1 ) vcc $end
$var wire 1 * unknown $end
$var tri1 1 + devclrn $end
$var tri1 1 , devpor $end
$var tri1 1 - devoe $end
$var wire 1 . count[0]~output_o $end
$var wire 1 / count[1]~output_o $end
$var wire 1 0 count[2]~output_o $end
$var wire 1 1 clk~input_o $end
$var wire 1 2 clr~input_o $end
$var wire 1 3 cur~0_combout $end
$var wire 1 4 updown~input_o $end
$var wire 1 5 cur~1_combout $end
$var wire 1 6 cur~2_combout $end
$var wire 1 7 cur [2] $end
$var wire 1 8 cur [1] $end
$var wire 1 9 cur [0] $end
$upscope $end
$upscope $end
$enddefinitions $end
#0
$dumpvars
0!
0"
0#
0&
0%
0$
x'
0(
1)
x*
1+
1,
1-
0.
0/
00
01
02
13
04
15
16
09
08
07
$end
#10000
1!
0'
11
17
18
19
1.
1/
10
1&
1%
1$
03
#20000
0!
1'
01
#30000
1!
0'
11
09
0.
0&
05
13
#40000
0!
1'
01
#50000
1!
0'
11
08
19
1.
0/
1&
0%
03
#60000
0!
1'
01
#70000
1!
0'
11
09
0.
0&
06
15
13
#80000
0!
1'
01
#90000
1!
0'
11
07
18
19
1.
1/
00
1&
1%
0$
03
#100000
0!
1'
01
#110000
1!
0'
11
09
0.
0&
05
13
#120000
0!
1'
01
#130000
1!
0'
11
08
19
1.
0/
1&
0%
03
#140000
0!
1'
01
#150000
1!
0'
11
09
0.
0&
16
15
13
#160000
0!
1'
01
#170000
1!
0'
11
17
18
19
1.
1/
10
1&
1%
1$
03
#180000
0!
1'
01
#190000
1!
0'
11
09
0.
0&
05
13
#200000
1"
0!
12
1'
01
06
03
#210000
1#
1!
14
0'
11
07
08
0/
00
0%
0$
#220000
0!
1'
01
#230000
0"
1!
02
0'
11
13
#240000
0!
1'
01
#250000
1!
0'
11
19
1.
1&
15
03
#260000
0!
1'
01
#270000
1!
0'
11
18
09
0.
1/
0&
1%
13
#280000
0!
1'
01
#290000
1!
0'
11
19
1.
1&
16
05
03
#300000
0!
1'
01
#310000
1!
0'
11
17
08
09
0.
0/
10
0&
0%
1$
13
#320000
0!
1'
01
#330000
1!
0'
11
19
1.
1&
15
03
#340000
0!
1'
01
#350000
1!
0'
11
18
09
0.
1/
0&
1%
13
#360000
0!
1'
01
#370000
1!
0'
11
19
1.
1&
06
05
03
#380000
0!
1'
01
#390000
1!
0'
11
07
08
09
0.
0/
00
0&
0%
0$
13
#400000
0!
1'
01
#410000
1!
0'
11
19
1.
1&
15
03
#420000
0!
1'
01
#430000
1!
0'
11
18
09
0.
1/
0&
1%
13
#440000
0!
1'
01
#450000
0#
1!
04
0'
11
05
19
1.
1&
15
03
#460000
0!
1'
01
#470000
1!
0'
11
09
0.
0&
05
13
#480000
0!
1'
01
#490000
1!
0'
11
08
19
1.
0/
1&
0%
03
#500000
0!
1'
01
#510000
1!
0'
11
09
0.
0&
16
15
13
#520000
0!
1'
01
#530000
1!
0'
11
17
18
19
1.
1/
10
1&
1%
1$
03
#540000
0!
1'
01
#550000
1!
0'
11
09
0.
0&
05
13
#560000
0!
1'
01
#570000
1!
0'
11
08
19
1.
0/
1&
0%
03
#580000
0!
1'
01
#590000
1!
0'
11
09
0.
0&
06
15
13
#600000
0!
1'
01
#610000
1!
0'
11
07
18
19
1.
1/
00
1&
1%
0$
03
#620000
0!
1'
01
#630000
1!
0'
11
09
0.
0&
05
13
#640000
0!
1'
01
#650000
1!
0'
11
08
19
1.
0/
1&
0%
03
#660000
0!
1'
01
#670000
1!
0'
11
09
0.
0&
16
15
13
#680000
0!
1'
01
#690000
1!
0'
11
17
18
19
1.
1/
10
1&
1%
1$
03
#700000
0!
1'
01
#710000
1!
0'
11
09
0.
0&
05
13
#720000
0!
1'
01
#730000
1!
0'
11
08
19
1.
0/
1&
0%
03
#740000
0!
1'
01
#750000
1!
0'
11
09
0.
0&
06
15
13
#760000
0!
1'
01
#770000
1!
0'
11
07
18
19
1.
1/
00
1&
1%
0$
03
#780000
0!
1'
01
#790000
1!
0'
11
09
0.
0&
05
13
#800000
0!
1'
01
#810000
1!
0'
11
08
19
1.
0/
1&
0%
03
#820000
0!
1'
01
#830000
1!
0'
11
09
0.
0&
16
15
13
#840000
0!
1'
01
#850000
1!
0'
11
17
18
19
1.
1/
10
1&
1%
1$
03
#860000
0!
1'
01
#870000
1!
0'
11
09
0.
0&
05
13
#880000
0!
1'
01
#890000
1!
0'
11
08
19
1.
0/
1&
0%
03
#900000
0!
1'
01
#910000
1!
0'
11
09
0.
0&
06
15
13
#920000
0!
1'
01
#930000
1!
0'
11
07
18
19
1.
1/
00
1&
1%
0$
03
#940000
0!
1'
01
#950000
1!
0'
11
09
0.
0&
05
13
#960000
0!
1'
01
#970000
1!
0'
11
08
19
1.
0/
1&
0%
03
#980000
0!
1'
01
#990000
1!
0'
11
09
0.
0&
16
15
13
