lab2/part1/simulation/qsim/lab2c.msim.vcd
$comment
	File created using the following command:
		vcd file lab2c.msim.vcd -direction
$end
$date
	Tue Aug 30 19:26:57 2016
$end
$version
	ModelSim Version 10.3d
$end
$timescale
	1ps
$end

$scope module lab2c_vlg_vec_tst $end
$var reg 1 ! A $end
$var reg 1 " B $end
$var reg 1 # C $end
$var wire 1 $ f $end
$var wire 1 % sampler $end

$scope module i1 $end
$var wire 1 & gnd $end
$var wire 1 ' vcc $end
$var wire 1 ( unknown $end
$var tri1 1 ) devclrn $end
$var tri1 1 * devpor $end
$var tri1 1 + devoe $end
$var wire 1 , f~output_o $end
$var wire 1 - C~input_o $end
$var wire 1 . A~input_o $end
$var wire 1 / B~input_o $end
$var wire 1 0 inst2~combout $end
$upscope $end
$upscope $end
$enddefinitions $end
#0
$dumpvars
0!
0"
0#
1$
x%
0&
1'
x(
1)
1*
1+
1,
0-
0.
0/
10
$end
#10000
1!
1.
0%
#20000
1"
0!
1/
0.
1%
#30000
1!
1.
0%
#40000
1#
0"
0!
1-
0/
0.
1%
00
0,
0$
#50000
1!
1.
0%
#60000
1"
0!
1/
0.
1%
#70000
1!
1.
0%
10
1,
1$
#80000
0#
0"
0!
0-
0/
0.
1%
#90000
1!
1.
0%
#100000
1"
0!
1/
0.
1%
#110000
1!
1.
0%
#120000
1#
0"
0!
1-
0/
0.
1%
00
0,
0$
#130000
1!
1.
0%
#140000
1"
0!
1/
0.
1%
#150000
1!
1.
0%
10
1,
1$
