lab7/Design B/simulation/qsim/lab7b.msim.vcd
$comment
	File created using the following command:
		vcd file lab7b.msim.vcd -direction
$end
$date
	Tue Oct 25 18:27:23 2016
$end
$version
	ModelSim Version 10.3d
$end
$timescale
	1ps
$end

$scope module lab7b_vlg_vec_tst $end
$var reg 1 ! x0 $end
$var reg 1 " x1 $end
$var reg 1 # x2 $end
$var reg 1 $ x3 $end
$var wire 1 % f1 $end
$var wire 1 & f2 $end
$var wire 1 ' sampler $end

$scope module i1 $end
$var wire 1 ( gnd $end
$var wire 1 ) vcc $end
$var wire 1 * unknown $end
$var tri1 1 + devclrn $end
$var tri1 1 , devpor $end
$var tri1 1 - devoe $end
$var wire 1 . f1~output_o $end
$var wire 1 / f2~output_o $end
$var wire 1 0 x2~input_o $end
$var wire 1 1 x0~input_o $end
$var wire 1 2 x3~input_o $end
$var wire 1 3 x1~input_o $end
$var wire 1 4 inst2~0_combout $end
$var wire 1 5 inst|21~combout $end
$upscope $end
$upscope $end
$enddefinitions $end
#0
$dumpvars
0!
0"
0#
0$
1%
0&
x'
0(
1)
x*
1+
1,
1-
1.
0/
00
01
02
03
04
05
$end
#5000
1!
11
0'
14
0.
0%
#10000
1"
0!
13
01
1'
#15000
1!
11
0'
#20000
1#
0"
0!
10
03
01
1'
#25000
1!
11
0'
04
1.
1%
#30000
1"
0!
13
01
1'
14
0.
0%
#35000
1!
11
0'
#40000
1$
0#
0"
0!
12
00
03
01
1'
#45000
1!
11
0'
#50000
1"
0!
13
01
1'
04
1.
1%
#55000
1!
11
0'
14
15
1/
0.
1&
0%
#60000
1#
0"
0!
10
03
01
1'
05
0/
0&
#65000
1!
11
0'
#70000
1"
0!
13
01
1'
#75000
1!
11
0'
04
1.
1%
