lab5/Design C/simulation/qsim/lab5c.msim.vcd
$comment
	File created using the following command:
		vcd file lab5c.msim.vcd -direction
$end
$date
	Tue Oct 04 19:12:41 2016
$end
$version
	ModelSim Version 10.4d
$end
$timescale
	1ps
$end

$scope module lab5c_vlg_vec_tst $end
$var reg 1 ! Cin $end
$var reg 4 " X [3:0] $end
$var reg 4 # Y [3:0] $end
$var wire 1 $ Cout $end
$var wire 1 % Over $end
$var wire 1 & S [3] $end
$var wire 1 ' S [2] $end
$var wire 1 ( S [1] $end
$var wire 1 ) S [0] $end

$scope module i1 $end
$var wire 1 * gnd $end
$var wire 1 + vcc $end
$var wire 1 , unknown $end
$var tri1 1 - devclrn $end
$var tri1 1 . devpor $end
$var tri1 1 / devoe $end
$var wire 1 0 Over~output_o $end
$var wire 1 1 Cout~output_o $end
$var wire 1 2 S[3]~output_o $end
$var wire 1 3 S[2]~output_o $end
$var wire 1 4 S[1]~output_o $end
$var wire 1 5 S[0]~output_o $end
$var wire 1 6 X[3]~input_o $end
$var wire 1 7 Y[3]~input_o $end
$var wire 1 8 Y[2]~input_o $end
$var wire 1 9 X[2]~input_o $end
$var wire 1 : Y[1]~input_o $end
$var wire 1 ; X[1]~input_o $end
$var wire 1 < Y[0]~input_o $end
$var wire 1 = X[0]~input_o $end
$var wire 1 > Cin~input_o $end
$var wire 1 ? inst|auto_generated|op_1~22_cout $end
$var wire 1 @ inst|auto_generated|op_1~18 $end
$var wire 1 A inst|auto_generated|op_1~14 $end
$var wire 1 B inst|auto_generated|op_1~10 $end
$var wire 1 C inst|auto_generated|op_1~1_sumout $end
$var wire 1 D inst|auto_generated|overflow~combout $end
$var wire 1 E inst|auto_generated|op_1~2 $end
$var wire 1 F inst|auto_generated|op_1~5_sumout $end
$var wire 1 G inst|auto_generated|op_1~9_sumout $end
$var wire 1 H inst|auto_generated|op_1~13_sumout $end
$var wire 1 I inst|auto_generated|op_1~17_sumout $end
$upscope $end
$upscope $end
$enddefinitions $end
#0
$dumpvars
1!
b101 "
b10 #
0$
1%
0)
0(
0'
1&
0*
1+
x,
1-
1.
1/
10
01
12
03
04
05
06
07
08
19
1:
0;
0<
1=
1>
1?
1@
1A
1B
1C
0D
0E
0F
0G
0H
0I
$end
#10000
b1101 "
b1001 "
b1011 "
1;
09
16
1D
1E
0B
0C
1G
1H
14
13
02
00
0E
0%
0&
1'
1(
1F
1C
12
11
1$
1&
0F
01
0$
#20000
0!
b1010 #
b1110 #
0>
18
17
1E
1B
0?
0C
0G
03
02
0@
0D
0&
0'
1F
1C
1I
15
12
11
10
1D
1%
1$
1&
1)
0H
04
00
0%
0(
#30000
b11 "
b111 "
1!
b110 #
b10 #
1>
08
07
19
06
0D
0E
1?
10
1@
1%
0F
0I
05
01
0$
0)
1H
14
1(
#40000
0!
b1010 #
b1110 #
0>
18
17
1D
1E
0?
0C
1G
13
02
00
0@
0%
0&
1'
1F
1I
15
11
1$
1)
0H
04
0(
#50000
b101 "
b1101 "
b1001 "
0;
09
16
0D
0A
1C
0G
1H
14
03
12
10
0B
1D
1%
1&
0'
1(
1G
13
00
0%
1'
0C
02
0D
0&
10
1%
#60000
1!
b110 #
b10 #
b1011 "
1>
1;
08
07
1D
0E
1A
1?
1C
0G
0H
04
03
12
00
1@
0%
1&
0'
0(
0F
1G
0I
05
13
01
0$
1'
0)
1H
14
1(
#70000
b11 "
b111 "
b101 "
0;
19
06
0D
1B
0C
0G
0H
04
03
02
10
1D
1%
0&
0'
0(
1C
12
00
0D
0%
1&
10
1%
#80000
b100 "
b0 #
b1 #
b101 #
b1100 "
1<
0:
18
0=
16
1D
1E
0A
0C
1G
1H
14
13
02
00
0%
0&
1'
1(
1F
0G
03
11
1$
0'
