lab5/Design B/simulation/qsim/lab5b.msim.vcd
$comment
	File created using the following command:
		vcd file lab5b.msim.vcd -direction
$end
$date
	Tue Oct 04 19:07:52 2016
$end
$version
	ModelSim Version 10.4d
$end
$timescale
	1ps
$end

$scope module lab5b_vlg_vec_tst $end
$var reg 1 ! Cin $end
$var reg 4 " X [3:0] $end
$var reg 4 # Y [3:0] $end
$var wire 1 $ Cout $end
$var wire 1 % Over $end
$var wire 1 & S [3] $end
$var wire 1 ' S [2] $end
$var wire 1 ( S [1] $end
$var wire 1 ) S [0] $end

$scope module i1 $end
$var wire 1 * gnd $end
$var wire 1 + vcc $end
$var wire 1 , unknown $end
$var tri1 1 - devclrn $end
$var tri1 1 . devpor $end
$var tri1 1 / devoe $end
$var wire 1 0 ~QUARTUS_CREATED_GND~I_combout $end
$var wire 1 1 Cin~input_o $end
$var wire 1 2 X[0]~input_o $end
$var wire 1 3 Y[0]~input_o $end
$var wire 1 4 fulladd1|S~combout $end
$var wire 1 5 X[1]~input_o $end
$var wire 1 6 Y[1]~input_o $end
$var wire 1 7 fulladd2|S~combout $end
$var wire 1 8 X[2]~input_o $end
$var wire 1 9 Y[2]~input_o $end
$var wire 1 : fulladd2|Cout~combout $end
$var wire 1 ; fulladd3|S~combout $end
$var wire 1 < Y[3]~input_o $end
$var wire 1 = X[3]~input_o $end
$var wire 1 > fulladd4|S~combout $end
$var wire 1 ? fulladd4|Cout~combout $end
$var wire 1 @ Over~0_combout $end
$upscope $end
$upscope $end
$enddefinitions $end
#0
$dumpvars
1!
b100 "
b11 #
0$
1%
0)
0(
0'
1&
0*
1+
x,
1-
1.
1/
00
11
02
13
04
05
16
07
18
09
1:
0;
0<
0=
1>
0?
1@
$end
#20000
0!
b0 "
b10 "
b1011 #
b1111 #
b1101 #
b1100 #
01
03
06
19
1<
15
08
0:
0@
1?
0>
17
1(
0&
1$
0%
0?
1>
1;
1'
1&
0$
#40000
b1010 "
b1011 "
1!
b100 #
b0 #
b10 #
b11 #
11
13
16
09
0<
12
1=
1:
14
0;
0'
1)
1;
1'
#60000
b1010 "
0!
b1011 #
b1111 #
b1110 #
01
03
19
1<
02
07
04
1?
0;
0'
1$
0)
0(
#80000
b1110 "
b110 "
b111 "
1!
b110 #
b10 #
b11 #
11
13
09
0<
12
18
0=
1@
0?
17
14
1)
1(
0$
1%
#100000
b1 #
b110 "
0!
b1001 #
b1101 #
02
06
19
1<
01
0:
0@
1?
0>
1;
1'
0&
1$
0%
0;
0'
#120000
b100 "
b0 "
b1000 "
b1111 #
b1001 "
1!
b111 #
b11 #
16
09
0<
12
05
08
1=
11
1:
07
0?
1>
1&
0$
0(
1;
1'
#140000
b10 #
b1011 "
b1010 "
0!
b1010 #
b1110 #
02
15
03
19
1<
01
04
1?
0;
0'
1$
0)
